128 -88 -88 -16 640
72 -80 -80 -8 720
-24 -8 -8 -8 40 -16 32 -48 -120 -16 -16 -16 -16 520
-488 496
40 -24 912
72 -24 880
64 -32 -40 -48 128 -72 -80 472
-48 -48 -8 -48 16 -48 16 -24 -24 -16 -16 -8 -8 560
992
-80 -8 -8 -8 280 -120 -128 304
40 -24 -40 -40 -40 80 -80 592
-8 -32 -40 -40 -80 -160 584
8 -64 -400 -400 88
