-80 -56 840
-56 88 -8 -32 776
-24 -56 -56 832
-24 -24 928
-48 -16 -8 -8 -64 -56 -24 712
24 -8 32 -48 -64 -56 -64 -64 -72 -64 416
-80 -72 824
-72 -64 -80 -72 672
-8 -16 -56 -24 -48 -48 -56 80 -64 520
-48 -56 80 -64 -80 -48 -24 72 -8 -80 -32 312
-8 -8 16 -24 -56 -40 -64 -56 -48 -40 552
992
-80 -48 -16 -48 -72 -40 640
8 -64 8 -56 -32 784
-64 -80 832
